Suite/Test/Step Name,Browser,Description,Tag,Start time,End time,Duration,Status
LoginSuite,Chrome 113.0.0.0,,,2023-06-01 12:34:41,2023-06-01 12:35:00,18.846s,PASSED
,,,,,,,
Test Cases/SauceDemoLogin,Chrome 113.0.0.0,,,2023-06-01 12:34:41,2023-06-01 12:34:49,8.223s,PASSED
"openBrowser("""")",Chrome 113.0.0.0,,,2023-06-01 12:34:42,2023-06-01 12:34:46,3.891s,PASSED
"navigateToUrl(""https://www.saucedemo.com/"")",Chrome 113.0.0.0,,,2023-06-01 12:34:46,2023-06-01 12:34:47,0.937s,PASSED
"setText(findTestObject(""Object Repository/Page_Swag Labs/input_Swag Labs_user-name""), """")",Chrome 113.0.0.0,,,2023-06-01 12:34:47,2023-06-01 12:34:47,0.811s,PASSED
"setText(findTestObject(""Object Repository/Page_Swag Labs/input_Swag Labs_password""), """")",Chrome 113.0.0.0,,,2023-06-01 12:34:47,2023-06-01 12:34:48,0.738s,PASSED
"click(findTestObject(""Object Repository/Page_Swag Labs/input_Swag Labs_login-button""))",Chrome 113.0.0.0,,,2023-06-01 12:34:48,2023-06-01 12:34:49,0.504s,PASSED
closeBrowser(),Chrome 113.0.0.0,,,2023-06-01 12:34:49,2023-06-01 12:34:49,0.765s,PASSED
,,,,,,,
Test Cases/SauceDemoLogin,Chrome 113.0.0.0,,,2023-06-01 12:34:49,2023-06-01 12:34:55,5.059s,PASSED
"openBrowser("""")",Chrome 113.0.0.0,,,2023-06-01 12:34:50,2023-06-01 12:34:51,1.791s,PASSED
"navigateToUrl(""https://www.saucedemo.com/"")",Chrome 113.0.0.0,,,2023-06-01 12:34:51,2023-06-01 12:34:52,0.424s,PASSED
"setText(findTestObject(""Object Repository/Page_Swag Labs/input_Swag Labs_user-name""), """")",Chrome 113.0.0.0,,,2023-06-01 12:34:52,2023-06-01 12:34:53,0.830s,PASSED
"setText(findTestObject(""Object Repository/Page_Swag Labs/input_Swag Labs_password""), """")",Chrome 113.0.0.0,,,2023-06-01 12:34:53,2023-06-01 12:34:53,0.739s,PASSED
"click(findTestObject(""Object Repository/Page_Swag Labs/input_Swag Labs_login-button""))",Chrome 113.0.0.0,,,2023-06-01 12:34:53,2023-06-01 12:34:54,0.506s,PASSED
closeBrowser(),Chrome 113.0.0.0,,,2023-06-01 12:34:54,2023-06-01 12:34:55,0.690s,PASSED
,,,,,,,
Test Cases/SauceDemoLogin,Chrome 113.0.0.0,,,2023-06-01 12:34:55,2023-06-01 12:35:00,4.999s,PASSED
"openBrowser("""")",Chrome 113.0.0.0,,,2023-06-01 12:34:55,2023-06-01 12:34:56,1.874s,PASSED
"navigateToUrl(""https://www.saucedemo.com/"")",Chrome 113.0.0.0,,,2023-06-01 12:34:56,2023-06-01 12:34:57,0.412s,PASSED
"setText(findTestObject(""Object Repository/Page_Swag Labs/input_Swag Labs_user-name""), """")",Chrome 113.0.0.0,,,2023-06-01 12:34:57,2023-06-01 12:34:58,0.799s,PASSED
"setText(findTestObject(""Object Repository/Page_Swag Labs/input_Swag Labs_password""), """")",Chrome 113.0.0.0,,,2023-06-01 12:34:58,2023-06-01 12:34:58,0.760s,PASSED
"click(findTestObject(""Object Repository/Page_Swag Labs/input_Swag Labs_login-button""))",Chrome 113.0.0.0,,,2023-06-01 12:34:58,2023-06-01 12:34:59,0.470s,PASSED
closeBrowser(),Chrome 113.0.0.0,,,2023-06-01 12:34:59,2023-06-01 12:35:00,0.671s,PASSED
